An Introduction to R - 9 Data transformation
…
heart_rate: heart rate (beats/min)

If the data set is stored in our computer disc as a .csv file we can read it with the read_csv function from dplyr package:

The function read_csv() is used to read the arrhythmia.csv file as following:

library(readr)
arrhythmia <- read_csv(here("data", "arrhythmia.csv"))

arrhythmia

# A tibble: 452 × 6
     age   sex height weight   QRS heart_rate
   <dbl> <dbl>  <dbl>  <dbl> <dbl>      <dbl>
 1    75     0    190     80    91         63
 2    56     1    165     64    81         53
 3    54     0    172     95   138         75
 4    55     0    175     94   100         71
 5    75     0    190     80    88         75
 6    13     0    169     51   100         84
 7    40     1    160     52    77         70
 8    49     1    162     54    78         67
 9    44     0    168     56    84         64
10    50     1    167     67    89         63
# … with 442 more rows
…
10 Create new variables with mutate()

Suppose we want to calculate BMI for the participants from weight and height. We can use the following code to calculate the BMI:

mutate(arrhythmia, bmi = round(weight / (height / 100)^ 2, digits = 1))

# A tibble: 452 × 7
     age sex    height weight   QRS heart_rate   bmi
   <dbl> <fct>   <dbl>  <dbl> <dbl>      <dbl> <dbl>
 1    75 male      190     80    91         63  22.2
 2    56 female    165     64    81         53  23.5
 3    54 male      172     95   138         75  32.1
 4    55 male      175     94   100         71  30.7
 5    75 male      190     80    88         75  22.2
 6    13 male      169     51   100         84  17.9
 7    40 female    160     52    77         70  20.3
 8    49 female    162     54    78         67  20.6
 9    44 male      168     56    84         64  19.8
10    50 female    167     67    89         63  24  
# … with 442 more rows
…
11 Using the pipe operator %>% in a sequence of functions

Let’s say that we want to find the BMI, and BMI categories only for the adults:

arrhythmia_adults <- arrhythmia %>% 
        filter(age >= 18) %>% 
        mutate(bmi = round(weight / (height / 100)^ 2, digits=1),
               bmi_cat=cut(bmi, breaks=c(-Inf, 18.5, 25.0, 30.0, Inf), 
                   labels=c("underweight","normal","overweight", "obese"))
               )

arrhythmia_adults

# A tibble: 428 × 8
     age sex    height weight   QRS heart_rate   bmi bmi_cat
   <dbl> <fct>   <dbl>  <dbl> <dbl>      <dbl> <dbl> <fct>  
 1    75 male      190     80    91         63  22.2 normal 
 2    56 female    165     64    81         53  23.5 normal 
 3    54 male      172     95   138         75  32.1 obese  
 4    55 male      175     94   100         71  30.7 obese  
 5    75 male      190     80    88         75  22.2 normal 
 6    40 female    160     52    77         70  20.3 normal 
 7    49 female    162     54    78         67  20.6 normal 
 8    44 male      168     56    84         64  19.8 normal 
 9    50 female    167     67    89         63  24   normal 
10    62 male      170     72   102         70  24.9 normal 
# … with 418 more rows
…
! (not)

Alternatively we can use the %in% operator. This operator helps us to easily create multiple OR arguments:

overweight_obese2 <- arrhythmia_adults %>% 
                       filter(bmi_cat %in% c("overweight", "obese"))

Let’s say that we also want those overweight or obese people who have heart rate > 85:

overweight_obese3 <- arrhythmia_adults %>% 
                       filter(bmi_cat %in% c("overweight", "obese"), 
                              heart_rate >= 85)
overweight_obese3

# A tibble: 44 × 8
     age sex    height weight   QRS heart_rate   bmi bmi_cat   
   <dbl> <fct>   <dbl>  <dbl> <dbl>      <dbl> <dbl> <fct>     
 1    50 female    160     73    75         93  28.5 overweight
 2    69 female    160     71    75         98  27.7 overweight
 3    64 female    155     88    82         85  36.6 obese     
 4    62 female    165     70    72        103  25.7 overweight
 5    63 male      175     80    97         89  26.1 overweight
 6    43 male      176     90    78         85  29.1 overweight
 7    24 female    162     75    88         93  28.6 overweight
 8    51 female    160     80    85         85  31.2 obese     
 9    42 female    160     68    81         85  26.6 overweight
10    73 female    160     80    82        103  31.2 obese     
# … with 34 more rows

Now, let’s rename variables for example heart_rate to HR and sex to gender in the subset overweight_obese3. Moreover, select() can be used with everything() to hoist a variable up to the front of the tibble:

overweight_obese3 %>% 
          rename(HR = heart_rate,gender = sex) %>% 
          select(HR, gender, everything())

# A tibble: 44 × 8
      HR gender   age height weight   QRS   bmi bmi_cat   
   <dbl> <fct>  <dbl>  <dbl>  <dbl> <dbl> <dbl> <fct>     
 1    93 female    50    160     73    75  28.5 overweight
 2    98 female    69    160     71    75  27.7 overweight
 3    85 female    64    155     88    82  36.6 obese     
 4   103 female    62    165     70    72  25.7 overweight
 5    89 male      63    175     80    97  26.1 overweight
 6    85 male      43    176     90    78  29.1 overweight
 7    93 female    24    162     75    88  28.6 overweight
 8    85 female    51    160     80    85  31.2 obese     
 9    85 female    42    160     68    81  26.6 overweight
10   103 female    73    160     80    82  31.2 obese     
# … with 34 more rows
…
