An Introduction to R - 10 Data Visualization: ggplot2
…
In this example, we investigate graphically the association between a country’s wealth and COVID-19 cases. This research question may provide valuable information on whether interventions have been successful, and whether people in countries with fragile health systems are at increased risk.

What other variables are associated to both wealth and COVID-19 cases? For example, wealthier countries may have more resources to test for the virus and a lack of reported cases in developing countries could indicate a scarcity of testing. Therefore, when assessing wealth and COVID-19 cases, we should be cautious when comparing countries with different testing rates. In addition, evidence suggests age is an important factor in COVID-19 infection and mortality. Therefore, we should be careful when comparing countries with higher proportions of older inhabitants to other countries. Using diagrams to depict multivariable associations may be helpful.

Load the data

We load the file covid_data.csv in R.

library(readr)
covid_data <- read_csv("data/covid_data.csv", col_types = cols(date = col_date(format = "%m/%d/%Y")))

covid_data

# A tibble: 132,236 × 14
   iso3c country date       confi…¹ deaths recov…² total…³ region income popul…⁴
   <chr> <chr>   <date>       <dbl>  <dbl>   <dbl>   <dbl> <chr>  <chr>    <dbl>
 1 ABW   Aruba   2020-03-13      NA     NA      NA      NA Latin… High …  106766
 2 ABW   Aruba   2020-03-14      NA     NA      NA      NA Latin… High …  106766
 3 ABW   Aruba   2020-03-15      NA     NA      NA      NA Latin… High …  106766
 4 ABW   Aruba   2020-03-16      NA     NA      NA      NA Latin… High …  106766
 5 ABW   Aruba   2020-03-17      NA     NA      NA      NA Latin… High …  106766
 6 ABW   Aruba   2020-03-18      NA     NA      NA      NA Latin… High …  106766
 7 ABW   Aruba   2020-03-19      NA     NA      NA      NA Latin… High …  106766
 8 ABW   Aruba   2020-03-20      NA     NA      NA      NA Latin… High …  106766
 9 ABW   Aruba   2020-03-21      NA     NA      NA      NA Latin… High …  106766
10 ABW   Aruba   2020-03-22      NA     NA      NA      NA Latin… High …  106766
# … with 132,226 more rows, 4 more variables: pop_density <dbl>,
#   life_expectancy <dbl>, gdp_capita <dbl>, timestamp <dttm>, and abbreviated
#   variable names ¹​confirmed, ²​recovered, ³​total_tests, ⁴​population
…
covid_deaths

# A tibble: 87,842 × 6
   date       iso3c deaths days_elapsed end_label cgroup
   <date>     <chr>  <dbl> <drtn>       <chr>     <chr> 
 1 2020-01-22 CHN       17 0 days       <NA>      CHN   
 2 2020-01-23 CHN       18 1 days       <NA>      CHN   
 3 2020-01-24 CHN       26 2 days       <NA>      CHN   
 4 2020-01-25 CHN       42 3 days       <NA>      CHN   
 5 2020-01-26 CHN       56 4 days       <NA>      CHN   
 6 2020-01-27 CHN       82 5 days       <NA>      CHN   
 7 2020-01-28 CHN      131 6 days       <NA>      CHN   
 8 2020-01-29 CHN      133 7 days       <NA>      CHN   
 9 2020-01-30 CHN      171 8 days       <NA>      CHN   
10 2020-01-31 CHN      213 9 days       <NA>      CHN   
# … with 87,832 more rows
…
